{
  "flight_number": 17,
  "mission_name": "AsiaSat 6",
  "mission_id": [
    "593B499"
  ],
  "launch_year": "2014",
  "launch_date_unix": 1410066000,
  "launch_date_utc": "2014-09-07T05:00:00.000Z",
  "launch_date_local": "2014-09-07T01:00:00-04:00",
  "is_tentative": false,
  "tentative_max_precision": "hour",
  "tbd": false,
  "rocket": {
    "rocket_id": "falcon9",
    "rocket_name": "Falcon 9",
    "rocket_type": "v1.1",
    "first_stage": {
      "cores": [
        {
          "core_serial": "B1011",
          "flight": 1,
          "block": 1,
          "gridfins": false,
          "legs": false,
          "reused": false,
          "land_success": null,
          "landing_intent": false,
          "landing_type": null,
          "landing_vehicle": null
        }
      ]
    },
    "second_stage": {
      "block": 1,
      "payloads": [
        {
          "payload_id": "AsiaSat 6",
          "norad_id": [
            40141
          ],
          "reused": false,
          "customers": [
            "AsiaSat"
          ],
          "nationality": "Hong Kong",
          "manufacturer": "SSL",
          "payload_type": "Satellite",
          "payload_mass_kg": 4428,
          "payload_mass_lbs": 9762,
          "orbit": "GTO",
          "orbit_params": {
            "reference_system": "geocentric",
            "regime": "geostationary",
            "longitude": 120,
            "semi_major_axis_km": 42165.564,
            "eccentricity": 0.0000747,
            "periapsis_km": 35784.279,
            "apoapsis_km": 35790.578,
            "inclination_deg": 0.0005,
            "period_min": 1436.139,
            "lifespan_years": 15,
            "epoch": "2018-11-26T03:55:06.000Z",
            "mean_motion": 1.00268817,
            "raan": 101.5255,
            "arg_of_pericenter": 145.7898,
            "mean_anomaly": 356.4192
          }
        }
      ]
    },
    "fairings": {
      "reused": false,
      "recovery_attempt": false,
      "recovered": false,
      "ship": null
    }
  },
  "ships": [],
  "telemetry": {
    "flight_club": null
  },
  "reuse": {
    "core": false,
    "side_core1": false,
    "side_core2": false,
    "fairings": false,
    "capsule": false
  },
  "launch_site": {
    "site_id": "ccafs_slc_40",
    "site_name": "CCAFS SLC 40",
    "site_name_long": "Cape Canaveral Air Force Station Space Launch Complex 40"
  },
  "launch_success": true,
  "links": {
    "mission_patch": "https://images2.imgbox.com/57/6a/upI6gwfq_o.png",
    "mission_patch_small": "https://images2.imgbox.com/6f/c0/D3Owbmpo_o.png",
    "reddit_campaign": null,
    "reddit_launch": "http://www.reddit.com/r/spacex/comments/2fenrv",
    "reddit_recovery": null,
    "reddit_media": null,
    "presskit": "https://www.spaceflightnow.com/falcon9/012/presskit.pdf",
    "article_link": "https://www.space.com/27052-spacex-launches-asiasat6-satellite.html",
    "wikipedia": "https://en.wikipedia.org/wiki/AsiaSat_6",
    "video_link": "https://www.youtube.com/watch?v=39ninsyTRk8",
    "flickr_images": [
      "https://farm8.staticflickr.com/7604/16169087563_0e3559ab5b_o.jpg",
      "https://farm9.staticflickr.com/8742/16233828644_96738200b2_o.jpg",
      "https://farm8.staticflickr.com/7645/16601443698_e70315d1ed_o.jpg",
      "https://farm9.staticflickr.com/8730/16830335046_5f017c17be_o.jpg",
      "https://farm9.staticflickr.com/8637/16855040322_57671ab8eb_o.jpg"
    ]
  },
  "details": null,
  "upcoming": false,
  "static_fire_date_utc": "2014-08-22T23:51:18.000Z",
  "static_fire_date_unix": 1408751478
}
