{
    "kind": "youtube#video",
    "etag": "\"XI7nbFXulYBIpL0ayR_gDh3eu1k/1BIMrywRmrbeQpSjHeDBxPLedIE\"",
    "id": "RUjH14vhLxA",
    "snippet": {
        "publishedAt": "2017-10-11T23:32:47.000Z",
        "channelId": "UCtI0Hodo5o5dUb67FeUjDeA",
        "title": "Koreasat-5A Webcast",
        "description": "SpaceX is targeting launch of Koreasat-5A from Launch Complex 39A (LC-39A) at NASA’s Kennedy Space Center",
        "thumbnails": {
            "default": {
                "url": "https://i.ytimg.com/vi/RUjH14vhLxA/default.jpg",
                "width": 120,
                "height": 90
            },
            "medium": {
                "url": "https://i.ytimg.com/vi/RUjH14vhLxA/mqdefault.jpg",
                "width": 320,
                "height": 180
            },
            "high": {
                "url": "https://i.ytimg.com/vi/RUjH14vhLxA/hqdefault.jpg",
                "width": 480,
                "height": 360
            },
            "standard": {
                "url": "https://i.ytimg.com/vi/0a_00nJ_Y88/sddefault.jpg",
                "width": 640,
                "height": 480
            },
            "maxres": {
                "url": "https://i.ytimg.com/vi/yTaIDooc8Og/maxresdefault.jpg",
                "width": 1280,
                "height": 720
            }
        },
        "channelTitle": "SpaceX",
        "categoryId": "28",
        "liveBroadcastContent": "none",
        "localized": {
            "title": "Koreasat-5A Webcast",
            "description": "SpaceX is targeting launch of Koreasat-5A from Launch Complex 39A (LC-39A) at NASA’s Kennedy Space Center"
        }
    }
}
